{
    "KPlugin": {
        "Authors": [
            {
                "Email": "universalemail.gm@gmail.com",
                "Name": "ruvkr",
                "Name[ar]": "ruvkr",
                "Name[az]": "ruvkr",
                "Name[ca@valencia]": "ruvkr",
                "Name[ca]": "ruvkr",
                "Name[en_GB]": "ruvkr",
                "Name[es]": "ruvkr",
                "Name[eu]": "ruvkr",
                "Name[fi]": "ruvkr",
                "Name[fr]": "ruvkr",
                "Name[it]": "ruvkr",
                "Name[ka]": "ruvkr",
                "Name[ko]": "ruvkr",
                "Name[lt]": "ruvkr",
                "Name[nl]": "ruvkr",
                "Name[nn]": "ruvkr",
                "Name[pl]": "ruvkr",
                "Name[pt]": "ruvkr",
                "Name[pt_BR]": "ruvkr",
                "Name[ru]": "ruvkr",
                "Name[sl]": "ruvkr",
                "Name[sv]": "ruvkr",
                "Name[tr]": "ruvkr",
                "Name[uk]": "ruvkr",
                "Name[x-test]": "xxruvkrxx",
                "Name[zh_CN]": "ruvkr"
            }
        ],
        "Id": "Milky Way",
        "License": "CC-BY-SA-4.0",
        "Name": "Milky Way",
        "Name[ar]": "درب التبانة",
        "Name[az]": "Süd Yolu",
        "Name[ca@valencia]": "Via Làctia",
        "Name[ca]": "Via Làctia",
        "Name[cs]": "Mléčná dráha",
        "Name[da]": "Milky Way",
        "Name[de]": "Milchstraße",
        "Name[en_GB]": "Milky Way",
        "Name[es]": "Vía Láctea",
        "Name[eu]": "Esne-bidea",
        "Name[fi]": "Linnunrata",
        "Name[fr]": "Voie lactée",
        "Name[hi]": "क्षीर सागर",
        "Name[hu]": "Tejút",
        "Name[ia]": "Milky Way (Via Lactee)",
        "Name[it]": "Via Lattea",
        "Name[ka]": "ირმის ნახტომი",
        "Name[ko]": "은하수",
        "Name[lt]": "Paukščių Takas",
        "Name[nl]": "Melkweg",
        "Name[nn]": "Mjølkevegen",
        "Name[pa]": "ਅਕਾਸ਼ ਗੰਗਾ",
        "Name[pl]": "Droga Mleczna",
        "Name[pt]": "Via Láctea",
        "Name[pt_BR]": "Via Láctea",
        "Name[ro]": "Calea Lactee",
        "Name[ru]": "Млечный Путь",
        "Name[sk]": "Mliečna dráha",
        "Name[sl]": "Mlečna cesta",
        "Name[sv]": "Vintergatan",
        "Name[tr]": "Samanyolu",
        "Name[uk]": "Чумацький Шлях",
        "Name[x-test]": "xxMilky Wayxx",
        "Name[zh_CN]": "Milky Way 银河"
    }
}
