{
    "KPlugin": {
        "Authors": [
            {
                "Email": "",
                "Name": "Ken Vermette",
                "Name[ar]": "Ken Vermette",
                "Name[az]": "Ken Vermette",
                "Name[ca@valencia]": "Ken Vermette",
                "Name[ca]": "Ken Vermette",
                "Name[en_GB]": "Ken Vermette",
                "Name[es]": "Ken Vermette",
                "Name[eu]": "Ken Vermette",
                "Name[fi]": "Ken Vermette",
                "Name[fr]": "Ken Vermette",
                "Name[it]": "Ken Vermette",
                "Name[ka]": "Ken Vermette",
                "Name[ko]": "Ken Vermette",
                "Name[lt]": "Ken Vermette",
                "Name[nl]": "Ken Vermette",
                "Name[nn]": "Ken Vermette",
                "Name[pl]": "Ken Vermette",
                "Name[pt]": "Ken Vermette",
                "Name[pt_BR]": "Ken Vermette",
                "Name[ru]": "Ken Vermette",
                "Name[sl]": "Ken Vermette",
                "Name[sv]": "Ken Vermette",
                "Name[tr]": "Ken Vermette",
                "Name[uk]": "Ken Vermette",
                "Name[x-test]": "xxKen Vermettexx",
                "Name[zh_CN]": "Ken Vermette"
            }
        ],
        "Id": "Cluster",
        "License": "LGPLv3",
        "Name": "Cluster",
        "Name[ar]": "حشد",
        "Name[az]": "Bölük",
        "Name[ca@valencia]": "Cúmul",
        "Name[ca]": "Cúmul",
        "Name[cs]": "Hvězdokupa",
        "Name[da]": "Klynge",
        "Name[de]": "Cluster",
        "Name[en_GB]": "Cluster",
        "Name[es]": "Cúmulo",
        "Name[et]": "Kobar",
        "Name[eu]": "Cluster",
        "Name[fi]": "Ryväs",
        "Name[fr]": "Cluster",
        "Name[gl]": "Clúster",
        "Name[hi]": "झुंड",
        "Name[hu]": "Cluster",
        "Name[ia]": "Cluster (racemo)",
        "Name[id]": "Cluster",
        "Name[it]": "Ammasso",
        "Name[ka]": "კლასტერი",
        "Name[ko]": "클러스터",
        "Name[lt]": "Klasteris",
        "Name[nl]": "Cluster",
        "Name[nn]": "Klynge",
        "Name[pa]": "ਕਲੱਸਟਰ",
        "Name[pl]": "Klaster",
        "Name[pt]": "Enxame",
        "Name[pt_BR]": "Cluster",
        "Name[ro]": "Roi",
        "Name[ru]": "Кластер",
        "Name[sk]": "Zhluk",
        "Name[sl]": "Gruča",
        "Name[sv]": "Hop",
        "Name[tg]": "Панҷа",
        "Name[tr]": "Salkım",
        "Name[uk]": "Скупчення",
        "Name[x-test]": "xxClusterxx",
        "Name[zh_CN]": "Cluster 星团",
        "Name[zh_TW]": "Cluster"
    }
}
